{"componentChunkName":"component---src-templates-blog-js","path":"/blog/","result":{"data":{"page":{"title":"Blog"},"feed":{"edges":[{"node":{"excerpt":"Lorem ipsum dolor sit amet, consectetuer adipiscing elit. Aenean commodo ligula eget dolor. Aenean massa. Cum sociis natoque penatibus et magnis dis parturient montes, nascetur ridiculus mus. Donec…","frontmatter":{"title":"Blog Post 10","slug":"blog-post-10","tags":["tag1","tag2","tag3"]}}},{"node":{"excerpt":"Lorem ipsum dolor sit amet, consectetuer adipiscing elit. Aenean commodo ligula eget dolor. Aenean massa. Cum sociis natoque penatibus et magnis dis parturient montes, nascetur ridiculus mus. Donec…","frontmatter":{"title":"Blog Post 1","slug":"blog-post-1","tags":["tag1","tag2"]}}},{"node":{"excerpt":"Lorem ipsum dolor sit amet, consectetuer adipiscing elit. Aenean commodo ligula eget dolor. Aenean massa. Cum sociis natoque penatibus et magnis dis parturient montes, nascetur ridiculus mus. Donec…","frontmatter":{"title":"Blog Post 2","slug":"blog-post-2","tags":["tag1","tag3"]}}}],"pageInfo":{"perPage":3,"pageCount":4,"itemCount":3,"currentPage":1,"hasNextPage":true,"hasPreviousPage":false}},"tags":{"group":[{"fieldValue":"tag1","totalCount":7},{"fieldValue":"tag2","totalCount":6},{"fieldValue":"tag3","totalCount":8}]}},"pageContext":{"id":"6a082ca2-d4fd-5da5-a856-8ec7e7f08ca3","filter":{"fileAbsolutePath":{"regex":"/(blog)/.*\\.md$/"}},"limit":3,"offset":0}},"staticQueryHashes":[],"slicesMap":{}}