{"componentChunkName":"component---src-templates-blog-js","path":"/blog/tag/tag1/page/3/","result":{"data":{"page":{"title":"Blog"},"feed":{"edges":[{"node":{"excerpt":"Lorem ipsum dolor sit amet, consectetuer adipiscing elit. Aenean commodo ligula eget dolor. Aenean massa. Cum sociis natoque penatibus et magnis dis parturient montes, nascetur ridiculus mus. Donec…","frontmatter":{"title":"Blog Post 8","slug":"blog-post-8","tags":["tag1","tag2"]}}}],"pageInfo":{"perPage":3,"pageCount":3,"itemCount":1,"currentPage":3,"hasNextPage":false,"hasPreviousPage":true}},"tags":{"group":[{"fieldValue":"tag1","totalCount":7},{"fieldValue":"tag2","totalCount":6},{"fieldValue":"tag3","totalCount":8}]}},"pageContext":{"id":"6a082ca2-d4fd-5da5-a856-8ec7e7f08ca3","tag":"tag1","filter":{"fileAbsolutePath":{"regex":"/(blog)/.*\\.md$/"},"frontmatter":{"tags":{"in":"tag1"}}},"limit":3,"offset":6}},"staticQueryHashes":[],"slicesMap":{}}