{"componentChunkName":"component---src-templates-blog-js","path":"/blog/page/3/","result":{"data":{"page":{"title":"Blog"},"feed":{"edges":[{"node":{"excerpt":"Lorem ipsum dolor sit amet, consectetuer adipiscing elit. Aenean commodo ligula eget dolor. Aenean massa. Cum sociis natoque penatibus et magnis dis parturient montes, nascetur ridiculus mus. Donec…","frontmatter":{"title":"Blog Post 6","slug":"blog-post-6","tags":["tag2","tag3"]}}},{"node":{"excerpt":"Lorem ipsum dolor sit amet, consectetuer adipiscing elit. Aenean commodo ligula eget dolor. Aenean massa. Cum sociis natoque penatibus et magnis dis parturient montes, nascetur ridiculus mus. Donec…","frontmatter":{"title":"Blog Post 7","slug":"blog-post-7","tags":["tag1","tag3"]}}},{"node":{"excerpt":"Lorem ipsum dolor sit amet, consectetuer adipiscing elit. Aenean commodo ligula eget dolor. Aenean massa. Cum sociis natoque penatibus et magnis dis parturient montes, nascetur ridiculus mus. Donec…","frontmatter":{"title":"Blog Post 9","slug":"blog-post-9","tags":["tag2","tag3"]}}}],"pageInfo":{"perPage":3,"pageCount":4,"itemCount":3,"currentPage":3,"hasNextPage":true,"hasPreviousPage":true}},"tags":{"group":[{"fieldValue":"tag1","totalCount":7},{"fieldValue":"tag2","totalCount":6},{"fieldValue":"tag3","totalCount":8}]}},"pageContext":{"id":"6a082ca2-d4fd-5da5-a856-8ec7e7f08ca3","filter":{"fileAbsolutePath":{"regex":"/(blog)/.*\\.md$/"}},"limit":3,"offset":6}},"staticQueryHashes":[],"slicesMap":{}}